{
  "list": [
    {
      "capacity": 89.88,
      "contactMethod": null,
      "contactPerson": null,
      "gridConnectionDate": "2023-01-16T10:55:38+05:00",
      "latitude": "41.307378",
      "longitude": "69.285277",
      "plantAddress": "Farg‘ona viloyati",
      "plantCode": "35888496",
      "plantName": "O‘zbekiston tumani Sanoat texnikumi 30 kVt",
      "imgUrl": "/projectsPhoto/pr-1.png"
    },
    {
      "capacity": 250.0,
      "contactMethod": null,
      "contactPerson": null,
      "gridConnectionDate": "2023-02-12T12:16:33+05:00",
      "latitude": "41.314378",
      "longitude": "69.265408",
      "plantAddress": "Xorazm viloyati",
      "plantCode": "35927140",
      "plantName": "Qo‘shko‘pir 1-son Kasb-hunar maktabi 20 kVt",
      "imgUrl": "/projectsPhoto/pr-2.png"
    },
    {
      "capacity": 60.0,
      "contactMethod": null,
      "contactPerson": null,
      "gridConnectionDate": "2023-04-08T12:30:21+05:00",
      "latitude": "41.309806",
      "longitude": "69.263960",
      "plantAddress": "Toshkent viloyati",
      "plantCode": "36120508",
      "plantName": "Chirchiq olimpiya va paraolimpiya sport kolleji 100 kVt",
      "imgUrl": "/projectsPhoto/pr-3.png"
    },
    {
      "capacity": 220.0,
      "contactMethod": null,
      "contactPerson": null,
      "gridConnectionDate": "2023-06-20T12:59:27+05:00",
      "latitude": "41.309784",
      "longitude": "69.254319",
      "plantAddress": "Toshkent viloyati",
      "plantCode": "36381052",
      "plantName": "Qibray tumani kasb-hunar maktabi 30 kVt",
      "imgUrl": "/projectsPhoto/pr-4.png"
    },
    {
      "capacity": 50.0,
      "contactMethod": null,
      "contactPerson": null,
      "gridConnectionDate": "2023-06-20T13:59:16+05:00",
      "latitude": "41.296766",
      "longitude": "69.277859",
      "plantAddress": "Qoraqalpog'iston Respublikasi",
      "plantCode": "36381745",
      "plantName": "Nukus olimpiya va paraolimpiya sport turlariga tayorlash markazi 80 kVt",
      "imgUrl": "/projectsPhoto/pr-5.png"
    },
    {
      "capacity": 24.336,
      "contactMethod": null,
      "contactPerson": null,
      "gridConnectionDate": "2023-06-21T05:41:31+05:00",
      "latitude": "41.337981",
      "longitude": "69.358566",
      "plantAddress": "Shayxontohur tumani",
      "plantCode": "36383294",
      "plantName": "Toshkent shaxar konservatoriyasi 225 kVt",
      "imgUrl": "/projectsPhoto/pr-6.png"
    },
    {
      "capacity": 0.0,
      "contactMethod": null,
      "contactPerson": null,
      "gridConnectionDate": "2023-06-21T09:22:56+05:00",
      "latitude": "40.812857",
      "longitude": "72.311612",
      "plantAddress": "Farg‘ona viloyati",
      "plantCode": "36384569",
      "plantName": "Qo‘qon_avtomobil va yo‘llar texnikumi 50 kVt",
      "imgUrl": "/projectsPhoto/pr-7.png"
    }
  ],
  "pageCount": 4,
  "pageNo": 1,
  "pageSize": 100,
  "total": 308,
  "failCode": 0,
  "message": "get plant list success",
  "success": true
}
